Division,WeightClassKg,Place,Name,Team,BodyweightKg,Best3SquatKg,Best3BenchKg,Best3DeadliftKg,TotalKg,Equipment,Event,Sex
Boys,51.71,1,Nick Brown,Fort Worth Boswell,51.71,45.36,31.75,79.38,156.49,Single-ply,SBD,M
Boys,55.79,1,Logan Claunch,Fort Worth Boswell,55.52,108.86,65.77,127.01,301.64,Single-ply,SBD,M
Boys,55.79,2,John Wyatt,Fort Worth Chisholm Trail,52.25,102.06,56.7,111.13,269.89,Single-ply,SBD,M
Boys,55.79,3,Nick Fulton,Saginaw,54.88,68.04,40.82,88.45,197.31,Single-ply,SBD,M
Boys,59.87,1,Jesus Calderon,Saginaw,59.6,117.93,74.84,163.29,356.07,Single-ply,SBD,M
Boys,59.87,2,Carlos Zamora,Fort Worth Boswell,57.88,117.93,77.11,131.54,326.59,Single-ply,SBD,M
Boys,59.87,3,Brandon Justice,Saginaw,57.52,102.06,63.5,142.88,308.44,Single-ply,SBD,M
Boys,59.87,4,Salim Voltaire,Saginaw,59.69,63.5,56.7,106.59,226.8,Single-ply,SBD,M
Boys,67.13,1,Djonny Mukuna,Saginaw,65.77,151.95,92.99,158.76,403.7,Single-ply,SBD,M
Boys,67.13,2,Jackie Vong,Saginaw,61.23,136.08,86.18,176.9,399.16,Single-ply,SBD,M
Boys,67.13,3,Jd Rosales,Fort Worth Boswell,67.04,138.35,102.06,142.88,383.29,Single-ply,SBD,M
Boys,67.13,4,Cory Courtney,Fort Worth Chisholm Trail,64.86,117.93,70.31,136.08,324.32,Single-ply,SBD,M
Boys,67.13,5,Aaron Diego,Fort Worth Boswell,63.23,117.93,63.5,136.08,317.51,Single-ply,SBD,M
Boys,67.13,6,Nathan Brewer,Saginaw,63.78,124.74,65.77,127.01,317.51,Single-ply,SBD,M
Boys,67.13,7,Isaac Braly,Saginaw,63.78,104.33,65.77,122.47,292.57,Single-ply,SBD,M
Boys,67.13,8,Alex Rosales,Fort Worth Boswell,61.78,92.99,61.23,120.2,274.42,Single-ply,SBD,M
Boys,67.13,9,Thomas Dang,Saginaw,60.33,86.18,45.36,95.25,226.8,Single-ply,SBD,M
Boys,67.13,DQ,Jacob Denmore,Fort Worth Chisholm Trail,62.6,129.27,,154.22,,Single-ply,SBD,M
Boys,74.84,1,Daquan Brown,Fort Worth Chisholm Trail,70.31,154.22,88.45,181.44,424.11,Single-ply,SBD,M
Boys,74.84,2,Sean Verdun,Saginaw,71.85,149.69,106.59,158.76,415.04,Single-ply,SBD,M
Boys,74.84,3,Jorge Alvarez,Fort Worth Boswell,74.84,151.95,92.99,170.1,415.04,Single-ply,SBD,M
Boys,74.84,4,Jaden Fisher,Fort Worth Chisholm Trail,72.94,142.88,86.18,172.37,401.43,Single-ply,SBD,M
Boys,74.84,5,Tyrant Wair,Fort Worth Boswell,71.03,145.15,92.99,158.76,396.89,Single-ply,SBD,M
Boys,74.84,6,Zach Brewster,Fort Worth Boswell,71.3,142.88,81.65,158.76,383.29,Single-ply,SBD,M
Boys,74.84,7,Emerson Sheperd,Saginaw,72.76,133.81,90.72,158.76,383.29,Single-ply,SBD,M
Boys,74.84,8,Stan Chwojdak,Saginaw,71.58,142.88,83.91,154.22,381.02,Single-ply,SBD,M
Boys,74.84,9,Tj Harris,Fort Worth Chisholm Trail,69.31,129.27,79.38,149.69,358.34,Single-ply,SBD,M
Boys,74.84,10,Dylan Quinn,Saginaw,72.39,127.01,74.84,145.15,347,Single-ply,SBD,M
Boys,74.84,11,Justin White,Fort Worth Boswell,70.31,117.93,63.5,142.88,324.32,Single-ply,SBD,M
Boys,74.84,DQ,Nick Campa,Fort Worth Chisholm Trail,72.39,129.27,,156.49,,Single-ply,SBD,M
Boys,74.84,DQ,Cam Washington,Fort Worth Chisholm Trail,67.86,142.88,,161.03,,Single-ply,SBD,M
Boys,74.84,DQ,Moise Mpala,Fort Worth Chisholm Trail,67.77,145.15,,151.95,,Single-ply,SBD,M
Boys,82.1,1,Parker Anderson,Fort Worth Boswell,81.65,161.03,97.52,172.37,430.91,Single-ply,SBD,M
Boys,82.1,2,Carson Morningstar,Fort Worth Boswell,79.47,163.29,90.72,172.37,426.38,Single-ply,SBD,M
Boys,82.1,3,Shone Mombo,Fort Worth Chisholm Trail,80.2,156.49,95.25,172.37,424.11,Single-ply,SBD,M
Boys,82.1,4,Brenton Blair,Fort Worth Boswell,79.29,147.42,108.86,158.76,415.04,Single-ply,SBD,M
Boys,82.1,5,Cody Mayberry,Fort Worth Boswell,75.3,136.08,102.06,158.76,396.89,Single-ply,SBD,M
Boys,82.1,6,Michael Onoloapo,Fort Worth Chisholm Trail,76.11,140.61,95.25,156.49,392.36,Single-ply,SBD,M
Boys,82.1,7,Jermiah Dowell,Fort Worth Chisholm Trail,81.37,133.81,77.11,154.22,365.14,Single-ply,SBD,M
Boys,82.1,8,Matthew Davis,Fort Worth Boswell,75.66,136.08,83.91,142.88,362.87,Single-ply,SBD,M
Boys,82.1,9,Colin Spears,Fort Worth Boswell,80.01,131.54,68.04,142.88,342.46,Single-ply,SBD,M
Boys,82.1,10,Caden Hickman,Saginaw,80.92,122.47,74.84,140.61,337.93,Single-ply,SBD,M
Boys,82.1,DQ,Bryce Holingsworth,Fort Worth Chisholm Trail,77.84,115.67,,149.69,,Single-ply,SBD,M
Boys,89.81,1,Tyler Luangraj,Saginaw,87.72,192.78,108.86,188.24,489.88,Single-ply,SBD,M
Boys,89.81,2,Mason Munk,Fort Worth Boswell,87.18,129.27,88.45,136.08,353.8,Single-ply,SBD,M
Boys,89.81,3,Tj Richardson,Fort Worth Boswell,88.63,117.93,97.52,138.35,353.8,Single-ply,SBD,M
Boys,89.81,DQ,Robert Hardin,Fort Worth Chisholm Trail,89.27,111.13,,167.83,,Single-ply,SBD,M
Boys,99.79,1,Garrett Palmer,Fort Worth Boswell,98.25,176.9,122.47,181.44,480.81,Single-ply,SBD,M
Boys,99.79,2,Robert Cedillo,Fort Worth Boswell,96.16,158.76,124.74,170.1,453.59,Single-ply,SBD,M
Boys,99.79,3,Kaden Jefferson,Saginaw,92.99,172.37,92.99,181.44,446.79,Single-ply,SBD,M
Boys,99.79,4,Danny Simmons,Fort Worth Chisholm Trail,99.43,124.74,106.59,176.9,408.23,Single-ply,SBD,M
Boys,109.77,1,David Alvarez,Fort Worth Boswell,107.41,190.51,122.47,192.78,505.76,Single-ply,SBD,M
Boys,109.77,2,Jordan McDaniel,Saginaw,104.51,185.97,127.01,190.51,503.49,Single-ply,SBD,M
Boys,109.77,3,Adam Lindsey,Saginaw,105.87,188.24,99.79,183.7,471.74,Single-ply,SBD,M
Boys,109.77,4,Gerardo De La O,Saginaw,104.87,154.22,92.99,163.29,410.5,Single-ply,SBD,M
Boys,109.77,5,Gabe Wright,Fort Worth Boswell,103.15,170.1,79.38,147.42,396.89,Single-ply,SBD,M
Boys,124.74,1,Alex Trejo,Saginaw,113.58,215.46,124.74,238.14,578.33,Single-ply,SBD,M
Boys,124.74,2,Case Mason,Saginaw,113.49,195.04,113.4,210.92,519.36,Single-ply,SBD,M
Boys,124.74,3,Juan Gracia,Fort Worth Chisholm Trail,121.74,204.12,122.47,192.78,519.36,Single-ply,SBD,M
Boys,124.74,4,Austin Lyon,Fort Worth Boswell,114.31,170.1,92.99,154.22,417.3,Single-ply,SBD,M
Boys,124.74,DQ,Nicholas Perez,Fort Worth Chisholm Trail,113.4,142.88,,165.56,,Single-ply,SBD,M
Boys,124.74+,1,Colton Barber,Saginaw,128.64,151.95,97.52,158.76,408.23,Single-ply,SBD,M
Boys,124.74+,2,Aiden Tidwell,Fort Worth Boswell,137.44,136.08,77.11,136.08,349.27,Single-ply,SBD,M
