Division,WeightClassKg,Place,Name,Team,BodyweightKg,Best3SquatKg,Best3BenchKg,Best3DeadliftKg,TotalKg,Equipment,Event,Sex
Girls,44.23,1,Kaila Gonzalez,McAllen,43.27,106.59,65.77,92.99,265.35,Single-ply,SBD,F
Girls,44.23,2,Destiny Gonzales,Weslaco,42.86,92.99,43.09,97.52,233.6,Single-ply,SBD,F
Girls,44.23,3,Arianna Malacara,McAllen Memorial,43.45,97.52,40.82,95.25,233.6,Single-ply,SBD,F
Girls,44.23,4,Lynnette Lopez,McAllen,41.55,77.11,38.56,90.72,206.38,Single-ply,SBD,F
Girls,44.23,5,Jianna Enriquez,McAllen Rowe,42.82,79.38,34.02,77.11,190.51,Single-ply,SBD,F
Girls,44.23,6,Soledad Lopez,McAllen Rowe,37.47,61.23,29.48,52.16,142.88,Single-ply,SBD,F
Girls,47.85,1,Jolette Garza,Mission Sharyland,47.08,106.59,49.9,131.54,288.03,Single-ply,SBD,F
Girls,47.85,2,Destiny Perez,Rio Grande City Grulla,47.08,104.33,58.97,120.2,283.5,Single-ply,SBD,F
Girls,47.85,3,Jennifer Villarreal,Sharyland Pioneer,46.99,99.79,63.5,106.59,269.89,Single-ply,SBD,F
Girls,47.85,4,Yaleina Ramirez,McAllen Rowe,46.18,102.06,47.63,117.93,267.62,Single-ply,SBD,F
Girls,47.85,5,Sofia L Olivarez,Mission Veterans Memorial,47.08,97.52,40.82,113.4,251.74,Single-ply,SBD,F
Girls,47.85,6,Leslie Seguera,McAllen,47.72,106.59,43.09,92.99,242.67,Single-ply,SBD,F
Girls,47.85,7,Zulimar Vasquez,McAllen Rowe,46.18,90.72,40.82,104.33,235.87,Single-ply,SBD,F
Girls,47.85,8,Kaitlyn A Bryan,Mission Veterans Memorial,46.81,81.65,45.36,102.06,229.06,Single-ply,SBD,F
Girls,47.85,9,Yhasiri Reyna,La Joya,44.68,74.84,20.41,72.57,167.83,Single-ply,SBD,F
Girls,47.85,DQ,Evalyn Villarreal,La Joya,46.08,,,,,Single-ply,SBD,F
Girls,51.94,1,Daisy Hernandez,Weslaco,51.07,154.22,86.18,147.42,387.82,Single-ply,SBD,F
Girls,51.94,2,Kc Aguilera,Mission,50.08,131.54,58.97,104.33,294.84,Single-ply,SBD,F
Girls,51.94,3,Jennifer Prado,McAllen Memorial,49.26,115.67,65.77,111.13,292.57,Single-ply,SBD,F
Girls,51.94,4,Michelle Salaya,Weslaco,49.26,120.2,61.23,90.72,272.16,Single-ply,SBD,F
Girls,51.94,5,America Calderon,McAllen Memorial,50.08,99.79,43.09,106.59,249.48,Single-ply,SBD,F
Girls,51.94,6,Cassidy Gomez,McAllen Rowe,50.98,95.25,45.36,99.79,240.4,Single-ply,SBD,F
Girls,51.94,7,Alejandra Garcia,Sharyland Pioneer,51.17,92.99,49.9,95.25,238.14,Single-ply,SBD,F
Girls,51.94,8,Triana De Coss,Mission Sharyland,50.71,90.72,38.56,92.99,222.26,Single-ply,SBD,F
Girls,51.94,9,Victoria Razo,La Joya Juarez-Lincoln,51.89,70.31,36.29,92.99,199.58,Single-ply,SBD,F
Girls,51.94,10,Alexsys De la Cruz,McAllen Rowe,48.35,72.57,34.02,90.72,197.31,Single-ply,SBD,F
Girls,51.94,11,Kailyn Gomez,McAllen Rowe,48.35,74.84,34.02,77.11,185.97,Single-ply,SBD,F
Girls,51.94,12,Ayleen Perez,Mission,51.89,65.77,38.56,77.11,181.44,Single-ply,SBD,F
Girls,51.94,DQ,Danillle Puga,Mission,49.26,52.16,29.48,,,Single-ply,SBD,F
Girls,56.02,1,Katarina Moseley,McAllen,54.16,151.95,79.38,133.81,365.14,Single-ply,SBD,F
Girls,56.02,2,Mariana Zarate,Mission Sharyland,55.07,106.59,61.23,122.47,290.3,Single-ply,SBD,F
Girls,56.02,3,Shelya Cantu,La Joya Juarez-Lincoln,54.25,102.06,63.5,117.93,283.5,Single-ply,SBD,F
Girls,56.02,4,Aisa Saldana,Sharyland Pioneer,55.16,111.13,43.09,108.86,263.08,Single-ply,SBD,F
Girls,56.02,5,Sydney Olguin,La Joya Juarez-Lincoln,55.16,92.99,45.36,111.13,249.48,Single-ply,SBD,F
Girls,56.02,6,Krystal Avendano,Sharyland Pioneer,55.16,113.4,43.09,90.72,247.21,Single-ply,SBD,F
Girls,56.02,7,Daphne Morales,Mission Sharyland,55.97,86.18,47.63,102.06,235.87,Single-ply,SBD,F
Girls,56.02,8,Jennifer Rios,Rio Grande City,54.88,92.99,47.63,88.45,229.06,Single-ply,SBD,F
Girls,60.1,1,Donna Mondragon,La Joya Palmview,58.79,149.69,99.79,151.95,401.43,Single-ply,SBD,F
Girls,60.1,2,Brionna Marquez,Mission,59.51,165.56,86.18,145.15,396.89,Single-ply,SBD,F
Girls,60.1,3,Lilian Lara,Weslaco,57.52,154.22,72.57,142.88,369.68,Single-ply,SBD,F
Girls,60.1,4,Gianna Aleman,McAllen,59.87,142.88,83.91,124.74,351.53,Single-ply,SBD,F
Girls,60.1,5,Brianna Anzaldua,Sharyland Pioneer,57.61,117.93,47.63,117.93,283.5,Single-ply,SBD,F
Girls,60.1,6,Aleena Chavez,Mission,57.88,113.4,52.16,115.67,281.23,Single-ply,SBD,F
Girls,60.1,7,Alyssa Ponce,Mission Sharyland,57.97,95.25,70.31,111.13,276.69,Single-ply,SBD,F
Girls,60.1,8,Carmen Suarez,McAllen Rowe,59.42,102.06,56.7,117.93,276.69,Single-ply,SBD,F
Girls,60.1,9,Ortega Victoria,La Joya,58.42,102.06,40.82,115.67,258.55,Single-ply,SBD,F
Girls,60.1,10,Asmara Marin,Sharyland Pioneer,59.24,92.99,49.9,90.72,233.6,Single-ply,SBD,F
Girls,60.1,11,Ashley Zavala,La Joya Juarez-Lincoln,57.88,88.45,47.63,95.25,231.33,Single-ply,SBD,F
Girls,60.1,12,Gisela Alaniz,Rio Grande City,58.51,88.45,43.09,83.91,215.46,Single-ply,SBD,F
Girls,60.1,13,Arianna Canales,Sharyland Pioneer,56.7,77.11,38.56,90.72,206.38,Single-ply,SBD,F
Girls,60.1,14,Sydney Rubalcava,Rio Grande City,57.61,65.77,43.09,74.84,183.7,Single-ply,SBD,F
Girls,60.1,DQ,Janyssa L Espinoza,Mission Veterans Memorial,59.87,70.31,,,,Single-ply,SBD,F
Girls,60.1,DQ,Vianney Escamilla,Mission,57.88,102.06,,,,Single-ply,SBD,F
Girls,60.1,DQ,Ashley Maldonado,La Joya,59.96,,,,,Single-ply,SBD,F
Girls,67.36,1,Alyssa Moreno,McAllen Memorial,66.32,172.37,97.52,140.61,410.5,Single-ply,SBD,F
Girls,67.36,2,Alyssa Alvarado,McAllen Memorial,66.41,154.22,88.45,154.22,396.89,Single-ply,SBD,F
Girls,67.36,3,Kassandra Mendiola,La Joya Palmview,66.32,149.69,65.77,158.76,374.21,Single-ply,SBD,F
Girls,67.36,4,Jessica Montes,McAllen Memorial,63.68,151.95,74.84,145.15,371.95,Single-ply,SBD,F
Girls,67.36,5,Rubi Garcia,Weslaco,65.23,142.88,63.5,120.2,326.59,Single-ply,SBD,F
Girls,67.36,6,Alexia Rosas,La Joya Juarez-Lincoln,64.86,127.01,65.77,117.93,310.71,Single-ply,SBD,F
Girls,67.36,7,Jennifer Duarte,McAllen,65.32,122.47,43.09,136.08,301.64,Single-ply,SBD,F
Girls,67.36,8,Marialine Loera,Sharyland Pioneer,66.22,117.93,70.31,113.4,301.64,Single-ply,SBD,F
Girls,67.36,9,Lesly Partida,La Joya Juarez-Lincoln,66.41,127.01,52.16,108.86,288.03,Single-ply,SBD,F
Girls,67.36,10,Rebecca Cavazos,McAllen Rowe,64.32,113.4,63.5,104.33,281.23,Single-ply,SBD,F
Girls,67.36,11,Destiny Chavez,La Joya,64.32,104.33,52.16,106.59,263.08,Single-ply,SBD,F
Girls,67.36,12,Adriana Reyes,La Joya Palmview,61.14,108.86,45.36,99.79,254.01,Single-ply,SBD,F
Girls,67.36,13,Savannah Hernandez,McAllen Rowe,64.14,106.59,52.16,95.25,254.01,Single-ply,SBD,F
Girls,67.36,14,Karina Vargas,La Joya Palmview,61.78,104.33,43.09,104.33,251.74,Single-ply,SBD,F
Girls,67.36,15,Galilea Vargas,La Joya,66.32,90.72,36.29,104.33,231.33,Single-ply,SBD,F
Girls,67.36,16,Isabella Bucardo,Mission Sharyland,66.32,86.18,52.16,88.45,226.8,Single-ply,SBD,F
Girls,67.36,17,Klarissa Garcia,La Joya Palmview,65.86,92.99,43.09,86.18,222.26,Single-ply,SBD,F
Girls,67.36,18,Narryah Garza,McAllen Rowe,60.96,83.91,29.48,95.25,208.65,Single-ply,SBD,F
Girls,67.36,19,Karyme Castellanos,La Joya Palmview,64.77,79.38,43.09,86.18,208.65,Single-ply,SBD,F
Girls,67.36,20,Ashley Zavala,Rio Grande City,65.77,86.18,43.09,79.38,208.65,Single-ply,SBD,F
Girls,67.36,21,Lexy R Garza,Mission Veterans Memorial,63.5,61.23,49.9,65.77,176.9,Single-ply,SBD,F
Girls,67.36,DQ,Laisha M Rivas Lopez,Mission Veterans Memorial,61.51,106.59,,,,Single-ply,SBD,F
Girls,67.36,DQ,Litzy Oliva,Mission Sharyland,66.59,90.72,,,,Single-ply,SBD,F
Girls,67.36,DQ,Daniela Roman,Sharyland Pioneer,64.41,167.83,,,,Single-ply,SBD,F
Girls,75.07,1,Lili Bradford,McAllen Memorial,70.4,183.7,106.59,165.56,455.86,Single-ply,SBD,F
Girls,75.07,2,Leila Alvarado,Weslaco,74.48,158.76,70.31,129.27,358.34,Single-ply,SBD,F
Girls,75.07,3,Alyssa Echazarreta,McAllen,73.75,154.22,61.23,136.08,351.53,Single-ply,SBD,F
Girls,75.07,4,Elizabeth M Solis Hinojosa,Mission Veterans Memorial,73.39,122.47,58.97,113.4,294.84,Single-ply,SBD,F
Girls,75.07,5,Violette Bazan,Rio Grande City Grulla,74.12,108.86,49.9,124.74,283.5,Single-ply,SBD,F
Girls,75.07,6,Valeria Garza,Mission Veterans Memorial,69.85,99.79,56.7,102.06,258.55,Single-ply,SBD,F
Girls,75.07,7,Samantha Garza,McAllen Rowe,69.22,79.38,45.36,97.52,222.26,Single-ply,SBD,F
Girls,75.07,8,Azeneth Perez,Rio Grande City,74.39,74.84,47.63,72.57,195.04,Single-ply,SBD,F
Girls,82.33,1,Allyson Gutierrez,McAllen Memorial,79.47,151.95,83.91,165.56,401.43,Single-ply,SBD,F
Girls,82.33,2,Mariana Quiroz,Weslaco,76.66,183.7,79.38,136.08,399.16,Single-ply,SBD,F
Girls,82.33,3,Jeweliana Rosas,La Joya Juarez-Lincoln,80.47,145.15,74.84,136.08,356.07,Single-ply,SBD,F
Girls,82.33,4,Kendra Rodriguez,Sharyland Pioneer,82.01,133.81,56.7,120.2,310.71,Single-ply,SBD,F
Girls,82.33,5,Clarissa Rosales,Mission,78.56,113.4,45.36,120.2,278.96,Single-ply,SBD,F
Girls,82.33,6,Mikayla Trevino,Mission,78.56,97.52,49.9,102.06,249.48,Single-ply,SBD,F
Girls,82.33,7,Aaliyah Logan,Mission,75.75,97.52,54.43,95.25,247.21,Single-ply,SBD,F
Girls,82.33,8,Zayda M Sanchez,Mission Veterans Memorial,76.75,74.84,45.36,113.4,233.6,Single-ply,SBD,F
Girls,82.33,9,Melinda Benitez,Rio Grande City Grulla,77.02,83.91,47.63,92.99,224.53,Single-ply,SBD,F
Girls,82.33,10,Rocio Alvarez,Mission Veterans Memorial,79.02,70.31,31.75,61.23,163.29,Single-ply,SBD,F
Girls,90.04,1,Natalia Davila,Mission Sharyland,89.45,181.44,106.59,145.15,433.18,Single-ply,SBD,F
Girls,90.04,2,Paula Alvarez,Weslaco,86.82,158.76,79.38,142.88,381.02,Single-ply,SBD,F
Girls,90.04,3,Linda Rodriguez,Weslaco,89.27,165.56,68.04,138.35,371.95,Single-ply,SBD,F
Girls,90.04,4,Estella Prado,McAllen Memorial,88.27,151.95,63.5,147.42,362.87,Single-ply,SBD,F
Girls,90.04,5,Alexia Guerrero,McAllen,88.27,127.01,77.11,122.47,326.59,Single-ply,SBD,F
Girls,90.04,6,Joleen Trujillo,McAllen,87.82,117.93,43.09,108.86,269.89,Single-ply,SBD,F
Girls,90.04,7,Odalys Saenz,La Joya Juarez-Lincoln,83.73,106.59,47.63,104.33,258.55,Single-ply,SBD,F
Girls,90.04,8,Kimberly Garza,Rio Grande City,85.73,63.5,40.82,79.38,183.7,Single-ply,SBD,F
Girls,100.02,1,Adriana Cavazos,Weslaco,93.08,183.7,77.11,145.15,405.97,Single-ply,SBD,F
Girls,100.02,2,Valeria Santiago,McAllen Memorial,97.98,167.83,97.52,140.61,405.97,Single-ply,SBD,F
Girls,100.02,3,Crystal Palofax,Sharyland Pioneer,91.26,149.69,90.72,147.42,387.82,Single-ply,SBD,F
Girls,100.02,4,Mia Villarreal,Rio Grande City,92.99,111.13,52.16,120.2,283.5,Single-ply,SBD,F
Girls,100.02,5,Jessica Rodriguez,Mission,92.26,52.16,34.02,70.31,156.49,Single-ply,SBD,F
Girls,100.02,DQ,Oriana Rios,Rio Grande City,98.88,,,,,Single-ply,SBD,F
Girls,117.71,1,Erika Guerrero,Mission,102.33,195.04,97.52,142.88,435.45,Single-ply,SBD,F
Girls,117.71,2,Leah Cantu,McAllen Memorial,110.31,167.83,104.33,131.54,403.7,Single-ply,SBD,F
Girls,117.71,3,Grace Lopez,Weslaco,102.6,151.95,65.77,129.27,347,Single-ply,SBD,F
Girls,117.71,4,Jocelyn Benavides,Rio Grande City Grulla,112.13,151.95,61.23,127.01,340.19,Single-ply,SBD,F
Girls,117.71,5,Tara Torres,McAllen,100.88,117.93,68.04,102.06,288.03,Single-ply,SBD,F
Girls,117.71,6,Marisol Trevino,Rio Grande City Grulla,111.86,56.7,43.09,79.38,179.17,Single-ply,SBD,F
Girls,117.71+,1,Leslie Montelongo,Weslaco,126.64,174.63,79.38,140.61,394.63,Single-ply,SBD,F
Girls,117.71+,2,Nayely Leyva,La Joya,117.84,138.35,61.23,133.81,333.39,Single-ply,SBD,F
