Division,WeightClassKg,Place,Name,Team,BodyweightKg,Best3SquatKg,Best3BenchKg,Best3DeadliftKg,TotalKg,Equipment,Event,Sex
Girls,44.23,1,Lexi Iglesias,Port Lavaca Calhoun,43.36,111.13,63.5,122.47,297.1,Single-ply,SBD,F
Girls,44.23,2,Victoria Varela,Port Lavaca Calhoun,43.09,83.91,36.29,90.72,210.92,Single-ply,SBD,F
Girls,44.23,3,Karla Linares,Victoria West,42.37,54.43,36.29,70.31,161.03,Single-ply,SBD,F
Girls,47.85,1,Kirslynn Rendon,Victoria West,47.08,79.38,45.36,90.72,215.46,Single-ply,SBD,F
Girls,51.94,1,Salma Anaya-Martinez,Port Lavaca Calhoun,51.71,127.01,72.57,138.35,337.93,Single-ply,SBD,F
Girls,51.94,2,Raelin Luna,Port Lavaca Calhoun,50.89,129.27,68.04,131.54,328.85,Single-ply,SBD,F
Girls,51.94,3,Kara Smith,Port Lavaca Calhoun,51.35,117.93,61.23,124.74,303.91,Single-ply,SBD,F
Girls,51.94,4,Payton Cox,Port Lavaca Calhoun,51.35,111.13,58.97,117.93,288.03,Single-ply,SBD,F
Girls,51.94,5,Hannah Saegert,Rockport-Fulton,51.44,122.47,47.63,113.4,283.5,Single-ply,SBD,F
Girls,51.94,6,Abby Saegert,Rockport-Fulton,51.94,120.2,49.9,111.13,281.23,Single-ply,SBD,F
Girls,51.94,7,Kamaryn Hernandez,Port Lavaca Calhoun,50.44,104.33,47.63,117.93,269.89,Single-ply,SBD,F
Girls,56.02,1,Eh Nay Gay Hso,Port Lavaca Calhoun,55.25,163.29,63.5,136.08,362.87,Single-ply,SBD,F
Girls,56.02,2,Samantha Suniga,Beeville Jones,55.97,81.65,34.02,102.06,217.72,Single-ply,SBD,F
Girls,56.02,3,Lindsey Hawkins,Victoria West,54.79,56.7,29.48,79.38,165.56,Single-ply,SBD,F
Girls,60.1,1,Geraldine Tafolla,Port Lavaca Calhoun,58.51,136.08,72.57,136.08,344.73,Single-ply,SBD,F
Girls,60.1,2,Rosie Orta,Port Lavaca Calhoun,56.61,104.33,49.9,104.33,258.55,Single-ply,SBD,F
Girls,60.1,3,Kirsten Adams,Victoria West,60.06,106.59,40.82,104.33,251.74,Single-ply,SBD,F
Girls,60.1,4,Ariel Sanchez,Victoria West,58.24,81.65,38.56,102.06,222.26,Single-ply,SBD,F
Girls,67.36,1,Amidy Moreno,Beeville Jones,67.36,176.9,90.72,165.56,433.18,Single-ply,SBD,F
Girls,67.36,2,Katya Garza-Rodriguez,Port Lavaca Calhoun,62.87,133.81,58.97,133.81,326.59,Single-ply,SBD,F
Girls,67.36,3,Destiny Villegas,Beeville Jones,64.23,113.4,70.31,129.27,312.98,Single-ply,SBD,F
Girls,67.36,4,Valeria Ramirez,Rockport-Fulton,62.69,117.93,54.43,120.2,292.57,Single-ply,SBD,F
Girls,67.36,5,Hannah Garcia,Rockport-Fulton,66.59,113.4,56.7,111.13,281.23,Single-ply,SBD,F
Girls,67.36,6,Madison Stringo,Port Lavaca Calhoun,65.59,102.06,54.43,113.4,269.89,Single-ply,SBD,F
Girls,67.36,7,Jayslin Tilley,Victoria West,60.15,88.45,47.63,102.06,238.14,Single-ply,SBD,F
Girls,67.36,8,Lorissa Gonzales,Beeville Jones,64.5,90.72,40.82,92.99,224.53,Single-ply,SBD,F
Girls,75.07,1,Jackee Corrigan,Beeville Jones,74.75,149.69,74.84,124.74,349.27,Single-ply,SBD,F
Girls,75.07,2,Briana Abrego,Port Lavaca Calhoun,68.22,127.01,65.77,136.08,328.85,Single-ply,SBD,F
Girls,75.07,3,Sophia Doubrava-Sanchez,Beeville Jones,69.85,113.4,54.43,124.74,292.57,Single-ply,SBD,F
Girls,75.07,4,Ri'Hanna Mack,Victoria East,73.3,90.72,52.16,108.86,251.74,Single-ply,SBD,F
Girls,75.07,5,Allison Dentler,Victoria West,74.93,95.25,45.36,95.25,235.87,Single-ply,SBD,F
Girls,75.07,6,Candelaria Rodriguez,Victoria West,69.13,56.7,31.75,79.38,167.83,Single-ply,SBD,F
Girls,82.33,1,Desiree Gonzales,Beeville Jones,80.1,183.7,95.25,170.1,449.06,Single-ply,SBD,F
Girls,82.33,2,Vivian Galindo,Port Lavaca Calhoun,76.38,151.95,61.23,136.08,349.27,Single-ply,SBD,F
Girls,82.33,3,Cheyenne Brumlow,Port Lavaca Calhoun,75.57,131.54,68.04,115.67,315.25,Single-ply,SBD,F
Girls,82.33,DQ,Makaila Mendoza,Rockport-Fulton,78.02,77.11,,,,Single-ply,SBD,F
Girls,90.04,1,Kennedi Butcher,Port Lavaca Calhoun,86.09,181.44,108.86,172.37,462.66,Single-ply,SBD,F
Girls,90.04,2,Noelia Rodas,Port Lavaca Calhoun,83.46,147.42,74.84,138.35,360.61,Single-ply,SBD,F
Girls,90.04,3,Cheyenne Martinez,Rockport-Fulton,87.27,97.52,54.43,108.86,260.82,Single-ply,SBD,F
Girls,90.04,4,Miriam Fernandez,Rockport-Fulton,85.73,99.79,56.7,102.06,258.55,Single-ply,SBD,F
Girls,90.04,5,Alyse Gonzales,Victoria West,88.09,74.84,38.56,83.91,197.31,Single-ply,SBD,F
Girls,100.02,1,Alyssa Sauceda,Victoria East,94.17,151.95,83.91,133.81,369.68,Single-ply,SBD,F
Girls,100.02,2,Brittany Auzston,Beeville Jones,91.72,92.99,61.23,106.59,260.82,Single-ply,SBD,F
Girls,117.71,1,Angelina Calzada,Port Lavaca Calhoun,106.14,127.01,72.57,145.15,344.73,Single-ply,SBD,F
Girls,117.71,2,Mikaila Mills,Rockport-Fulton,103.51,142.88,54.43,124.74,322.05,Single-ply,SBD,F
Girls,117.71,3,Sarah Balderaz,Victoria West,108.59,115.67,72.57,115.67,303.91,Single-ply,SBD,F
Girls,117.71,4,Celine Alaniz,Victoria West,117.66,104.33,61.23,108.86,274.42,Single-ply,SBD,F
Girls,117.71+,1,Alayna Searcy,Port Lavaca Calhoun,117.93,201.85,111.13,163.29,476.27,Single-ply,SBD,F
