Name,WeightClassKg,Division,AgeRange,Sex,Best3BenchKg,Bench4Kg,Best3DeadliftKg,Deadlift4Kg,TotalKg,Event,Equipment,Place
N. Jackson,75,Class I,,M,,,230,232.5,230,D,Multi-ply,1
J. Woodall,90,Class I,,M,,,200,,200,D,Multi-ply,1
J. Williams II,100,Class I,,M,,,272.5,,272.5,D,Multi-ply,1
V. Brumfield,125,Class I,,M,,,292.5,,292.5,D,Multi-ply,1
J. Ceccarelli,140,Class I,,M,,,272.5,,272.5,D,Multi-ply,1
W. Carpenter,140,Class I,,M,,,250,,250,D,Multi-ply,2
M. Taylor,75,Disabled,,M,,,215,,215,D,Multi-ply,1
J. Woodall,90,Juniors 20-25,20-25,M,,,200,,200,D,Multi-ply,1
John Harpe,90,Law/Fire Masters 40-47,40-47,M,,,257.5,,257.5,D,Multi-ply,1
R. Niemritz,100,Law/Fire Open,,M,,,227.5,,227.5,D,Multi-ply,1
L. Mattoni,75,Masters 40-46,40-46,M,,,237.5,,237.5,D,Multi-ply,1
D. Benner,110,Masters 40-46,40-46,M,,,205,,205,D,Multi-ply,1
Andy Medak,125,Masters 40-46,40-46,M,,,327.5,,327.5,D,Multi-ply,1
R. West,125,Masters 40-46,40-46,M,,,247.5,,247.5,D,Multi-ply,2
D. Jamison,67.5,Masters 47-53,47-53,M,,,155,,155,D,Multi-ply,1
A. Evangelista,75,Masters 47-53,47-53,M,,,215,,215,D,Multi-ply,1
Leaman Woodley,82.5,Masters 47-53,47-53,M,,,287.5,,287.5,D,Multi-ply,1
G. Brown,90,Masters 47-53,47-53,M,,,250,,250,D,Multi-ply,1
F. Martichuski,90,Masters 47-53,47-53,M,,,195,,195,D,Multi-ply,2
D. Stratton,100,Masters 47-53,47-53,M,,,295,,295,D,Multi-ply,1
R. Nelson,110,Masters 47-53,47-53,M,,,227.5,,227.5,D,Multi-ply,1
K. Smith,117.5,Masters 47-53,47-53,M,,,210,,210,D,Multi-ply,1
M. Jameson,75,Masters 54-60,54-60,M,,,192.5,,192.5,D,Multi-ply,1
A. Evangelista,75,Open,,M,,,215,,215,D,Multi-ply,1
Leaman Woodley,82.5,Open,,M,,,287.5,,287.5,D,Multi-ply,1
B. Boruff,82.5,Open,,M,,,235,,235,D,Multi-ply,2
K. Posey,90,Open,,M,,,260,,260,D,Multi-ply,1
Andy Medak,125,Open,,M,,,327.5,,327.5,D,Multi-ply,1
M. Taylor,75,Submasters 34-39,34-39,M,,,215,,215,D,Multi-ply,1
Jody Cranston,82.5,Submasters 34-39,34-39,M,,,257.5,265.5,257.5,D,Raw,1
D. Bell,100,Submasters 34-39,34-39,M,,,270,,270,D,Multi-ply,1
C. Worth,117.5,Submasters 34-39,34-39,M,,,230,,230,D,Multi-ply,1
V. Aleaga,140,Submasters 34-39,34-39,M,,,232.5,,232.5,D,Multi-ply,1
T. Potter,44,Teen 13-15,13-15,M,,,82.5,,82.5,D,Multi-ply,1
Vince Vasquez,56,Teen 13-15,13-15,M,,,117.5,120,117.5,D,Multi-ply,1
T. Clendaniel,56,Teen 13-15,13-15,M,,,107.5,,107.5,D,Multi-ply,2
Ray Segura,67.5,Teen 13-15,13-15,M,,,152.5,160,152.5,D,Multi-ply,1
S. Jamison,60,Teen 16-19,16-19,M,,,132.5,,132.5,D,Multi-ply,1
M. Prothman,100,Teen 16-19,16-19,M,,,227.5,,227.5,D,Multi-ply,1
J. Diederichs,100,Teen 16-19,16-19,M,,,227.5,235,227.5,D,Multi-ply,2
C. Gillespie,117.5,Teen 16-19,16-19,M,,,257.5,260,257.5,D,Multi-ply,1
B. Driskell,117.5,Teen 16-19,16-19,M,,,247.5,257.5,247.5,D,Multi-ply,2
Michaels-Olso,82.5,Masters 40-46,40-46,F,,,140,142.5,140,D,Multi-ply,1
Jill Arnow,90,Masters 40-46,40-46,F,,,190,192.5,190,D,Multi-ply,1
J. Morris,52,Masters 47-53,47-53,F,,,,,,D,Multi-ply,DQ
Carol Ann Myers,60,Masters 47-53,47-53,F,,,190,192.5,190,D,Multi-ply,1
T. Lee,67.5,Masters 47-53,47-53,F,,,137.5,140,137.5,D,Multi-ply,1
L. Lastufka,67.5,Masters 47-53,47-53,F,,,115,,115,D,Multi-ply,2
M. Lewis,82.5,Masters 47-53,47-53,F,,,142.5,145,142.5,D,Multi-ply,1
Margie Huston,90+,Masters 47-53,47-53,F,,,130,,130,D,Multi-ply,1
M. Pederson,48,Masters 54-60,54-60,F,,,77.5,,77.5,D,Multi-ply,1
G. Okicich,67.5,Masters 54-60,54-60,F,,,102.5,,102.5,D,Multi-ply,1
D. Backlel,75,Masters 54-60,54-60,F,,,130,,130,D,Multi-ply,1
P. Robey,90,Masters 54-60,54-60,F,,,110,115,110,D,Multi-ply,1
S. Olson,60,Masters 61-67,61-67,F,,,112.5,,112.5,D,Multi-ply,1
Carol Ann Myers,60,Open,,F,,,190,192.5,190,D,Multi-ply,1
L. Tan,60,Open,,F,,,92.5,,92.5,D,Multi-ply,2
M. Hobbs,67.5,Open,,F,,,127.5,,127.5,D,Multi-ply,1
V. Veliz,75,Open,,F,,,100,,100,D,Multi-ply,1
R. Sexton,52,Submasters 34-39,34-39,F,,,115,,115,D,Multi-ply,1
T. Jacobs,75,Submasters 34-39,34-39,F,,,172.5,,172.5,D,Multi-ply,1
S. Southwood,82.5,Submasters 34-39,34-39,F,,,147.5,,147.5,D,Multi-ply,1
K. Taueli,90+,Teen 13-15,13-15,F,,,195,,195,D,Multi-ply,1
Michaels-Olso,82.5,Masters 40-46,40-46,F,67.5,,,,67.5,B,Multi-ply,1
M. Clairmont,82.5,Masters 40-46,40-46,F,60,62.5,,,60,B,Multi-ply,2
Jill Arnow,90,Masters 40-46,40-46,F,105,,,,105,B,Multi-ply,1
J. Morris,52,Masters 47-53,47-53,F,42.5,,,,42.5,B,Multi-ply,1
Carol Ann Myers,60,Masters 47-53,47-53,F,92.5,,,,92.5,B,Multi-ply,1
T. Lee,67.5,Masters 47-53,47-53,F,82.5,,,,82.5,B,Multi-ply,1
L. Lastufka,67.5,Masters 47-53,47-53,F,55,,,,55,B,Multi-ply,2
N. Carpenter,75,Masters 47-53,47-53,F,72.5,,,,72.5,B,Multi-ply,1
Margie Huston,90+,Masters 47-53,47-53,F,75,,,,75,B,Multi-ply,1
M. Pederson,48,Masters 54-60,54-60,F,32.5,,,,32.5,B,Multi-ply,1
P. Robey,90,Masters 54-60,54-60,F,80,,,,80,B,Multi-ply,1
Donna Delleree,75,Masters 61-67,61-67,F,95,,,,95,B,Multi-ply,1
A. Thompson,75,Open,,F,92.5,,,,92.5,B,Multi-ply,1
R. Sexton,52,Submasters 34-39,34-39,F,52.5,,,,52.5,B,Multi-ply,1
A. Van Zandt,75,Teen 13-15,13-15,F,62.5,,,,62.5,B,Multi-ply,1
K. Taueli,90+,Teen 13-15,13-15,F,105,,,,105,B,Multi-ply,1
A. Bladow,75,Teen 16-19,16-19,F,77.5,,,,77.5,B,Multi-ply,1
Vince Vasquez,56,Class I,,M,57.5,,,,57.5,B,Multi-ply,1
N. Jackson,75,Class I,,M,145,,,,145,B,Multi-ply,1
M. Watson,82.5,Class I,,M,162.5,,,,162.5,B,Multi-ply,1
T. Swisher,82.5,Class I,,M,125,,,,125,B,Multi-ply,2
T. Tebbets,90,Class I,,M,170,,,,170,B,Multi-ply,1
C. Wu,90,Class I,,M,137.5,,,,137.5,B,Multi-ply,2
J. Woodall,90,Class I,,M,110,,,,110,B,Multi-ply,3
T. Stark,100,Class I,,M,200,207.5,,,200,B,Multi-ply,1
P. Delgado,100,Class I,,M,167.5,,,,167.5,B,Multi-ply,2
J. Angel,117.5,Class I,,M,,,,,,B,Multi-ply,DQ
A. Jensen,125,Class I,,M,192.5,,,,192.5,B,Multi-ply,1
J. Ceccarelli,140,Class I,,M,220,227.5,,,220,B,Multi-ply,1
D. Tatar,82.5,Juniors 20-25,20-25,M,152.5,,,,152.5,B,Multi-ply,1
J. Woodall,90,Juniors 20-25,20-25,M,110,,,,110,B,Multi-ply,1
John Harpe,90,Law/Fire Masters 40-47,40-47,M,167.5,,,,167.5,B,Multi-ply,2
T. Tebbets,90,Law/Fire Masters 40-47,40-47,M,170,,,,170,B,Multi-ply,1
R. Niemritz,100,Law/Fire Masters 40-47,40-47,M,217.5,,,,217.5,B,Multi-ply,1
N. Lane,110,Law/Fire Masters 40-47,40-47,M,235,,,,235,B,Multi-ply,1
K. Southwood,60,Masters 40-46,40-46,M,120,122.5,,,120,B,Multi-ply,1
L. Mattoni,75,Masters 40-46,40-46,M,167.5,,,,167.5,B,Multi-ply,1
B. Cox,100,Masters 40-46,40-46,M,195,,,,195,B,Multi-ply,1
E. Brown,110,Masters 40-46,40-46,M,182.5,,,,182.5,B,Multi-ply,1
Todd Christensen,117.5,Masters 40-46,40-46,M,250,,,,250,B,Multi-ply,1
N. Brewer,117.5,Masters 40-46,40-46,M,170,,,,170,B,Multi-ply,2
R. West,125,Masters 40-46,40-46,M,182.5,,,,182.5,B,Multi-ply,1
Bill Gillespie,140+,Masters 40-46,40-46,M,340,,,,340,B,Multi-ply,1
D. Jamison,67.5,Masters 47-53,47-53,M,102.5,,,,102.5,B,Multi-ply,1
A. Evangelista,75,Masters 47-53,47-53,M,195,197.5,,,195,B,Multi-ply,1
G. Brown,90,Masters 47-53,47-53,M,160,,,,160,B,Multi-ply,1
S. Mathis,110,Masters 47-53,47-53,M,215,,,,215,B,Multi-ply,1
R. Nelson,110,Masters 47-53,47-53,M,147.5,,,,147.5,B,Multi-ply,2
S. Shipley,117.5,Masters 47-53,47-53,M,272.5,,,,272.5,B,Multi-ply,1
K. Smith,117.5,Masters 47-53,47-53,M,170,,,,170,B,Multi-ply,2
J. Harms,125,Masters 47-53,47-53,M,262.5,,,,262.5,B,Multi-ply,1
M. Jameson,75,Masters 54-60,54-60,M,130,,,,130,B,Multi-ply,1
T. Wright,110,Masters 54-60,54-60,M,135,140,,,135,B,Multi-ply,1
G. Showalter,117.5,Masters 54-60,54-60,M,147.5,,,,147.5,B,Multi-ply,1
R. Smith,140+,Masters 54-60,54-60,M,230,,,,230,B,Multi-ply,1
A. Evangelista,75,Open,,M,195,197.5,,,195,B,Multi-ply,1
R. Bondurant,75,Open,,M,147.5,,,,147.5,B,Multi-ply,2
R. Harris,82.5,Open,,M,207.5,,,,207.5,B,Multi-ply,1
B. Boruff,82.5,Open,,M,150,,,,150,B,Multi-ply,2
Gustavo Warrington,90,Open,,M,262.5,,,,262.5,B,Multi-ply,1
D. Chinn,90,Open,,M,185,,,,185,B,Multi-ply,2
S. Mathis,110,Open,,M,215,,,,215,B,Multi-ply,1
Todd Christensen,117.5,Open,,M,250,,,,250,B,Multi-ply,1
Bill Gillespie,140+,Open,,M,340,,,,340,B,Multi-ply,1
A. Somera,75,Submasters 34-39,34-39,M,147.5,,,,147.5,B,Multi-ply,1
Jody Cranston,82.5,Submasters 34-39,34-39,M,150,,,,150,B,Multi-ply,1
D. Sugimoto,90,Submasters 34-39,34-39,M,182.5,,,,182.5,B,Multi-ply,1
L. Haywood,125,Submasters 34-39,34-39,M,222.5,,,,222.5,B,Multi-ply,1
V. Aleaga,140,Submasters 34-39,34-39,M,200,,,,200,B,Multi-ply,1
Vincent Eldridge,140+,Submasters 34-39,34-39,M,237.5,242.5,,,237.5,B,Multi-ply,1
T. Potter,44,Teen 13-15,13-15,M,37.5,40,,,37.5,B,Multi-ply,1
T. Clendaniel,56,Teen 13-15,13-15,M,47.5,,,,47.5,B,Multi-ply,1
Ray Segura,67.5,Teen 13-15,13-15,M,80,82,,,80,B,Multi-ply,1
S. Jamison,60,Teen 16-19,16-19,M,65,,,,65,B,Multi-ply,1
J. Diederichs,110,Teen 16-19,16-19,M,157.5,,,,157.5,B,Multi-ply,1
C. Gillespie,117.5,Teen 16-19,16-19,M,200,210,,,200,B,Multi-ply,1
B. Driskell,117.5,Teen 16-19,16-19,M,192.5,,,,192.5,B,Multi-ply,2
