Division,WeightClassKg,Place,Name,Team,BodyweightKg,Best3SquatKg,Best3BenchKg,Best3DeadliftKg,TotalKg,Equipment,Event,Sex
Boys,51.71,1,Mattox Evans,Big Spring,51.66,120.2,68.04,133.81,322.05,Single-ply,SBD,M
Boys,51.71,2,Robert Saldana,Eldorado,47.99,83.91,49.9,108.86,242.67,Single-ply,SBD,M
Boys,51.71,3,Carson Ellison,Miles,49.8,92.99,52.16,97.52,242.67,Single-ply,SBD,M
Boys,51.71,4,Jathan Sheridan,Roscoe Collegiate,48.72,70.31,47.63,90.72,208.65,Single-ply,SBD,M
Boys,51.71,5,Particio Garcia,Brownfield,50.71,74.84,43.09,90.72,208.65,Single-ply,SBD,M
Boys,55.79,1,Cruz Martinez,Big Spring,55.7,145.15,72.57,145.15,362.87,Single-ply,SBD,M
Boys,55.79,2,Hector Colon-Rivera,Coahoma,55.61,120.2,52.16,122.47,294.84,Single-ply,SBD,M
Boys,55.79,3,Dylan Garza,Miles,54.34,111.13,65.77,97.52,274.42,Single-ply,SBD,M
Boys,59.87,1,Johnny Martinez,Odessa Permian,58.88,142.88,83.91,142.88,369.68,Single-ply,SBD,M
Boys,59.87,2,Kenny Richardson,Big Spring,59.83,129.27,79.38,138.35,347,Single-ply,SBD,M
Boys,59.87,3,Radek Spatz,Miles,56.7,136.08,61.23,90.72,288.03,Single-ply,SBD,M
Boys,59.87,4,Ryan Gamez,Brownfield,57.52,104.33,68.04,115.67,288.03,Single-ply,SBD,M
Boys,59.87,5,Ismael Segura,Eldorado,59.78,97.52,74.84,111.13,283.5,Single-ply,SBD,M
Boys,59.87,6,Conner Andrae,Big Spring,56.7,79.38,61.23,129.27,269.89,Single-ply,SBD,M
Boys,59.87,7,Ariel Salazar,Sonora,59.78,102.06,47.63,117.93,267.62,Single-ply,SBD,M
Boys,59.87,8,Leroy Johnson,Big Spring,59.87,79.38,63.5,102.06,244.94,Single-ply,SBD,M
Boys,59.87,9,Thomas Brisendine,Brownfield,56.06,79.38,47.63,104.33,231.33,Single-ply,SBD,M
Boys,67.13,1,Josh Lopez,Big Spring,65.32,158.76,95.25,199.58,453.59,Single-ply,SBD,M
Boys,67.13,2,Shawn Mendoza,Big Spring,66.95,156.49,104.33,192.78,453.59,Single-ply,SBD,M
Boys,67.13,3,Junie Gonzales,Midland Greenwood,60.78,167.83,86.18,158.76,412.77,Single-ply,SBD,M
Boys,67.13,4,Bradyn Brooks,Odessa Permian,67.04,158.76,95.25,158.76,412.77,Single-ply,SBD,M
Boys,67.13,5,Jeremiah Collins,Big Spring,67.13,154.22,79.38,174.63,408.23,Single-ply,SBD,M
Boys,67.13,6,Dusty Chavez,Big Spring,66.95,124.74,97.52,170.1,392.36,Single-ply,SBD,M
Boys,67.13,7,Ky Kemper,Coahoma,65.77,149.69,83.91,129.27,362.87,Single-ply,SBD,M
Boys,67.13,8,Travis Handley,Andrews,63.68,122.47,88.45,145.15,356.07,Single-ply,SBD,M
Boys,67.13,9,Duarte Vasquez,Sonora,61.6,127.01,79.38,136.08,342.46,Single-ply,SBD,M
Boys,67.13,10,George Wagner,Andrews,65.32,111.13,70.31,158.76,340.19,Single-ply,SBD,M
Boys,67.13,11,Sean Striegler,Coahoma,66.95,122.47,90.72,127.01,340.19,Single-ply,SBD,M
Boys,67.13,12,Reese Kiser,Roscoe Collegiate,63.5,111.13,72.57,127.01,310.71,Single-ply,SBD,M
Boys,67.13,13,Mason Hudgins,Coahoma,67.04,111.13,83.91,115.67,310.71,Single-ply,SBD,M
Boys,67.13,14,Mason Patterson,Forsan,63.41,92.99,61.23,111.13,265.35,Single-ply,SBD,M
Boys,67.13,15,Jayden Wilhelm,Midland Greenwood,61.87,92.99,52.16,106.59,251.74,Single-ply,SBD,M
Boys,67.13,16,Tanner Wood,Miles,64.32,83.91,61.23,86.18,231.33,Single-ply,SBD,M
Boys,67.13,DQ,Slade Edwards,Seminole,65.5,154.22,,,,Single-ply,SBD,M
Boys,67.13,DQ,David Olivas,Andrews,66.41,142.88,,,,Single-ply,SBD,M
Boys,67.13,DQ,Juan Ruiz,Sonora,61.6,138.35,,,,Single-ply,SBD,M
Boys,67.13,DQ,Lane Bundy,Brownfield,64.77,,,,,Single-ply,SBD,M
Boys,67.13,DQ,Austin Gunnels,Brownfield,66.59,81.65,,,,Single-ply,SBD,M
Boys,74.84,1,Eric Cuellar,Andrews,73.84,185.97,92.99,195.04,474,Single-ply,SBD,M
Boys,74.84,2,Gabriel Zubiate,Seminole,72.21,170.1,86.18,161.03,417.3,Single-ply,SBD,M
Boys,74.84,3,Terran Limuel,Odessa Permian,72.76,147.42,92.99,170.1,410.5,Single-ply,SBD,M
Boys,74.84,4,Jimmy Vazquez,Midland Greenwood,72.03,163.29,83.91,158.76,405.97,Single-ply,SBD,M
Boys,74.84,5,Oscar Ariza,Seminole,69.31,147.42,95.25,158.76,401.43,Single-ply,SBD,M
Boys,74.84,6,Zach Kidd,Midland Greenwood,73.39,142.88,95.25,151.95,390.09,Single-ply,SBD,M
Boys,74.84,7,Ramiro Lopez,Andrews,72.21,151.95,90.72,142.88,385.55,Single-ply,SBD,M
Boys,74.84,8,Nate Gensler,Brownfield,70.58,124.74,83.91,154.22,362.87,Single-ply,SBD,M
Boys,74.84,9,Adam Sanchez,Sonora,70.31,127.01,83.91,147.42,358.34,Single-ply,SBD,M
Boys,74.84,10,Karl Karabanoff,Big Spring,70.49,145.15,56.7,154.22,356.07,Single-ply,SBD,M
Boys,74.84,11,Damian Rains,Coahoma,71.03,142.88,79.38,131.54,353.8,Single-ply,SBD,M
Boys,74.84,12,Jarod Humphries,Midland Greenwood,74.39,133.81,77.11,142.88,353.8,Single-ply,SBD,M
Boys,74.84,13,Uri Garza,Brownfield,70.22,127.01,68.04,142.88,337.93,Single-ply,SBD,M
Boys,74.84,14,Jack Oliveira,Mertzon Irion County,73.84,124.74,88.45,124.74,337.93,Single-ply,SBD,M
Boys,74.84,15,Daniel Montano,Andrews,70.4,113.4,65.77,154.22,333.39,Single-ply,SBD,M
Boys,74.84,16,Marcus Melendez,Big Spring,70.67,120.2,77.11,136.08,333.39,Single-ply,SBD,M
Boys,74.84,17,Jace Contreras,Mertzon Irion County,73.39,115.67,95.25,113.4,324.32,Single-ply,SBD,M
Boys,74.84,18,Javier Garcia,Andrews,68.13,111.13,81.65,120.2,312.98,Single-ply,SBD,M
Boys,74.84,19,Jacob Guy,Andrews,74.84,120.2,63.5,124.74,308.44,Single-ply,SBD,M
Boys,74.84,20,Aaron Noriega,Sonora,73.21,111.13,74.84,117.93,303.91,Single-ply,SBD,M
Boys,74.84,21,John Hyatt,Midland Greenwood,70.31,102.06,65.77,120.2,288.03,Single-ply,SBD,M
Boys,74.84,22,Jose Armendariz,Andrews,73.03,99.79,52.16,136.08,288.03,Single-ply,SBD,M
Boys,74.84,23,Dillon Martinez,Brownfield,67.22,97.52,68.04,113.4,278.96,Single-ply,SBD,M
Boys,74.84,24,Anthony Salinas,Brownfield,71.67,92.99,49.9,102.06,244.94,Single-ply,SBD,M
Boys,74.84,DQ,Aaron Salazar,Seminole,72.94,167.83,,,,Single-ply,SBD,M
Boys,74.84,DQ,Kase Pelzel,Miles,69.76,136.08,,,,Single-ply,SBD,M
Boys,82.1,1,Frankie Villanueva,Eldorado,81.28,195.04,102.06,208.65,505.76,Single-ply,SBD,M
Boys,82.1,2,Rogelio Cervantes,Big Spring,82.05,158.76,102.06,181.44,442.25,Single-ply,SBD,M
Boys,82.1,3,Isaiah Johnson,Big Spring,78.56,158.76,106.59,156.49,421.84,Single-ply,SBD,M
Boys,82.1,4,Hunter Manning,Andrews,79.47,158.76,74.84,172.37,405.97,Single-ply,SBD,M
Boys,82.1,5,Sam Meier,Roscoe Collegiate,77.29,136.08,95.25,158.76,390.09,Single-ply,SBD,M
Boys,82.1,6,Edward Morin,Brownfield,75.48,142.88,92.99,142.88,378.75,Single-ply,SBD,M
Boys,82.1,7,Derek Howard,Big Spring,81.92,151.95,74.84,136.08,362.87,Single-ply,SBD,M
Boys,82.1,8,Josh Gonzalez,Brownfield,77.38,136.08,88.45,136.08,360.61,Single-ply,SBD,M
Boys,82.1,9,Kevin Rodriguez,Big Spring,82.01,131.54,77.11,142.88,351.53,Single-ply,SBD,M
Boys,82.1,10,Enrique Calzada,Mertzon Irion County,80.38,136.08,88.45,124.74,349.27,Single-ply,SBD,M
Boys,82.1,11,Elias Sanchez,Miles,77.56,113.4,79.38,142.88,335.66,Single-ply,SBD,M
Boys,82.1,12,Kenneth Avila,Andrews,77.66,120.2,74.84,133.81,328.85,Single-ply,SBD,M
Boys,82.1,13,Gage Piwetz,Mertzon Irion County,76.84,115.67,72.57,136.08,324.32,Single-ply,SBD,M
Boys,82.1,14,Garrett Porter,Eldorado,78.02,111.13,77.11,111.13,299.37,Single-ply,SBD,M
Boys,82.1,15,Ernan Carrasco,Andrews,76.2,136.08,70.31,,206.38,Single-ply,SB,M
Boys,82.1,DQ,Peyton Sharp,Odessa Permian,81.19,133.81,,,,Single-ply,SB,M
Boys,82.1,DQ,Parker Ragain,Brownfield,80.74,127.01,,,,Single-ply,SB,M
Boys,89.81,1,Ethan Coleman,Midland Greenwood,88.09,283.5,174.63,272.16,730.28,Single-ply,SBD,M
Boys,89.81,2,Magael Castenada,Whiteface,87.27,190.51,120.2,208.65,519.36,Single-ply,SBD,M
Boys,89.81,3,Fernando Zapata,Midland Greenwood,85.46,185.97,129.27,181.44,496.68,Single-ply,SBD,M
Boys,89.81,4,Austin Damian,Ozona,88.72,190.51,102.06,183.7,476.27,Single-ply,SBD,M
Boys,89.81,5,Parker Gwilliam,Odessa Permian,84.28,158.76,95.25,172.37,426.38,Single-ply,SBD,M
Boys,89.81,6,Alex Wooten,Seminole,87.18,142.88,92.99,156.49,392.36,Single-ply,SBD,M
Boys,89.81,7,Brayden Scheller,Andrews,87.63,129.27,108.86,154.22,392.36,Single-ply,SBD,M
Boys,89.81,8,Jake Gonzales,Roscoe Collegiate,83.19,142.88,86.18,156.49,385.55,Single-ply,SBD,M
Boys,89.81,9,Arturo Ortiz,Big Spring,85,149.69,79.38,145.15,374.21,Single-ply,SBD,M
Boys,89.81,10,Oscar Carnero,Andrews,86.64,133.81,83.91,154.22,371.95,Single-ply,SBD,M
Boys,89.81,11,Cole Flora,Andrews,84.37,129.27,86.18,154.22,369.68,Single-ply,SBD,M
Boys,89.81,12,Brandon Castillo,Andrews,87.91,156.49,61.23,147.42,365.14,Single-ply,SBD,M
Boys,89.81,13,Auden Torres,Miles,89.18,151.95,70.31,124.74,347,Single-ply,SBD,M
Boys,89.81,14,Zach Luna,Eldorado,84.28,108.86,90.72,133.81,333.39,Single-ply,SBD,M
Boys,89.81,15,Destry Benally,Andrews,87.72,95.25,61.23,117.93,274.42,Single-ply,SBD,M
Boys,89.81,DQ,Brady Digby,Odessa Permian,87.27,,,,,Single-ply,SBD,M
Boys,99.79,1,Aaron Young,Lamesa Klondike,90.63,215.46,163.29,224.53,603.28,Single-ply,SBD,M
Boys,99.79,2,Isaiah Rodriguez,Big Spring,99.7,226.8,122.47,222.26,571.53,Single-ply,SBD,M
Boys,99.79,3,Irvin Delgado,Seminole,99.7,199.58,115.67,197.31,512.56,Single-ply,SBD,M
Boys,99.79,4,William Payne #3,Odessa Permian,97.98,181.44,113.4,158.76,453.59,Single-ply,SBD,M
Boys,99.79,5,Danny Garza,Brownfield,99.25,183.7,102.06,161.03,446.79,Single-ply,SBD,M
Boys,99.79,6,D'Angelo Garza,Brownfield,97.61,188.24,88.45,142.88,419.57,Single-ply,SBD,M
Boys,99.79,7,Brady Casbeer,Midland Greenwood,98.25,165.56,108.86,142.88,417.3,Single-ply,SBD,M
Boys,99.79,8,Kesean Dever,Brownfield,98.25,156.49,86.18,174.63,417.3,Single-ply,SBD,M
Boys,99.79,9,Nolan Park,Forsan,92.9,147.42,92.99,163.29,403.7,Single-ply,SBD,M
Boys,99.79,10,Ryan Joslyn,Big Spring,98.43,156.49,102.06,136.08,394.63,Single-ply,SBD,M
Boys,99.79,11,Jeremiah Talamantes,Seminole,94.8,167.83,79.38,138.35,385.55,Single-ply,SBD,M
Boys,99.79,12,Rahlei Eddington,Big Spring,99.65,133.81,90.72,145.15,369.68,Single-ply,SBD,M
Boys,99.79,13,Clayton Tucker,Forsan,99.06,122.47,81.65,147.42,351.53,Single-ply,SBD,M
Boys,99.79,14,Tucker Tippin,Andrews,91.99,131.54,81.65,122.47,335.66,Single-ply,SBD,M
Boys,99.79,15,Jon Parks,Mertzon Irion County,93.8,127.01,88.45,113.4,328.85,Single-ply,SBD,M
Boys,99.79,16,Julian Garcia,Andrews,99.61,83.91,70.31,120.2,274.42,Single-ply,SBD,M
Boys,109.77,1,Christian Bell,Midland Greenwood,106.5,249.48,161.03,233.6,644.1,Single-ply,SBD,M
Boys,109.77,2,Connor McDonald,Midland Greenwood,106.87,260.82,158.76,195.04,614.62,Single-ply,SBD,M
Boys,109.77,3,Nathaniel Whitmore,Forsan,103.24,226.8,136.08,204.12,566.99,Single-ply,SBD,M
Boys,109.77,4,Chris Correa,Brownfield,103.24,213.19,131.54,190.51,535.24,Single-ply,SBD,M
Boys,109.77,5,Rikter Connally,Seminole,105.41,147.42,90.72,149.69,387.82,Single-ply,SBD,M
Boys,109.77,6,Adrian Salcido,Andrews,104.6,142.88,108.86,122.47,374.21,Single-ply,SBD,M
Boys,109.77,7,Colin Steward,Miles,108.68,151.95,83.91,124.74,360.61,Single-ply,SBD,M
Boys,109.77,8,Antonio Garza,Andrews,103.15,151.95,83.91,122.47,358.34,Single-ply,SBD,M
Boys,109.77,9,Diego Vela,Roscoe Collegiate,104.69,102.06,97.52,111.13,310.71,Single-ply,SBD,M
Boys,109.77,10,Seth Parker,Eldorado,108.95,90.72,70.31,136.08,297.1,Single-ply,SBD,M
Boys,109.77,DQ,Cash Caswell,Andrews,109.41,129.27,,,,Single-ply,SBD,M
Boys,109.77,DQ,Korey Bass,Odessa Permian,105.14,151.95,,,,Single-ply,SBD,M
Boys,124.74,1,Andrew Roberts,Big Spring,123.83,210.92,163.29,204.12,578.33,Single-ply,SBD,M
Boys,124.74,2,Ruben Lujan,Odessa Permian,112.76,213.19,99.79,217.72,530.7,Single-ply,SBD,M
Boys,124.74,3,Daniel Roberts,Big Spring,124.38,199.58,136.08,195.04,530.7,Single-ply,SBD,M
Boys,124.74,4,Caleb Alexander,Seminole,113.04,217.72,106.59,197.31,521.63,Single-ply,SBD,M
Boys,124.74,5,Kobe Cervantez,Coahoma,113.85,222.26,124.74,142.88,489.88,Single-ply,SBD,M
Boys,124.74,6,Joaquin Gonzalez,Odessa Permian,114.67,181.44,102.06,181.44,464.93,Single-ply,SBD,M
Boys,124.74,7,Jb Wright,Forsan,114.21,165.56,111.13,170.1,446.79,Single-ply,SBD,M
Boys,124.74,8,Grayson Glidewell,Coahoma,111.49,181.44,90.72,158.76,430.91,Single-ply,SBD,M
Boys,124.74,9,Marco Villalobos,Sonora,116.39,170.1,79.38,181.44,430.91,Single-ply,SBD,M
Boys,124.74,10,Cade Owen,Odessa Permian,115.94,147.42,102.06,147.42,396.89,Single-ply,SBD,M
Boys,124.74,11,Blake Guerra,Coahoma,119.75,158.76,83.91,151.95,394.63,Single-ply,SBD,M
Boys,124.74,12,Daveon Walucho,Odessa Permian,113.13,138.35,83.91,145.15,367.41,Single-ply,SBD,M
Boys,124.74,13,Gilberto Martinez,Andrews,117.3,136.08,79.38,140.61,356.07,Single-ply,SBD,M
Boys,124.74,14,Evian Madrid,Andrews,113.58,127.01,70.31,129.27,326.59,Single-ply,SBD,M
Boys,124.74+,1,Emiliano Hernandez,Eldorado,140.43,249.48,181.44,272.16,703.07,Single-ply,SBD,M
Boys,124.74+,2,Zach Roberts,Big Spring,182.8,226.8,136.08,217.72,580.6,Single-ply,SBD,M
Boys,124.74+,3,Keano Perez,Ozona,133.63,226.8,115.67,197.31,539.77,Single-ply,SBD,M
Boys,124.74+,4,Jake Patterson,Forsan,125.37,181.44,108.86,201.85,492.15,Single-ply,SBD,M
Boys,124.74+,5,Sean Castillo,Brownfield,182.8,183.7,106.59,142.88,433.18,Single-ply,SBD,M
