Name,Place,Team,BirthDate,BodyweightKg,WeightClassKg,Bench1Kg,Bench2Kg,Bench3Kg,Best3BenchKg,TotalKg,Sex,Division,Equipment,Event
Anja Schreiner,1,SC Oberölsbach,1993-07-30,49.85,52,90,95,100,100,100,F,Juniors,Single-ply,B
Karin Engelbrecht,1,1. AC Bayreuth v. 1954 e.V.,1956-07-11,51.2,52,70,72.5,75,75,75,F,Masters 3,Single-ply,B
Katja Haindl,1,TG Landshut / Sparte KDK,1994-05-06,54.55,57,35,40,-42.5,40,40,F,Juniors,Single-ply,B
Manuela Horst,1,KSC II Amberg,1972-04-11,55.65,57,35,-37.5,37.5,37.5,37.5,F,Masters 1,Single-ply,B
Carolina Haag,DQ,TG Landshut / Sparte KDK,1998-02-21,55.95,57,-40,-40,-40,,,F,Youth A,Single-ply,B
Kerstin Lenz,1,AC Bavaria Forchheim e. V.,1978-03-31,56.65,57,50,55,-60,55,55,F,Open,Single-ply,B
Steffi Rädlein,3,Polizeisportverein Sonneberg e.V.,1966-05-19,56.9,57,40,42.5,45,45,45,F,Masters 2,Single-ply,B
Gabriela Hirner,1,KSC II Amberg,1965-10-09,57,57,75,80,85,85,85,F,Masters 2,Single-ply,B
Sabine Bommersbach,2,Polizeisportverein Sonneberg e.V.,1964-07-07,57,57,47.5,50,52.5,52.5,52.5,F,Masters 2,Single-ply,B
Pia Kring,1,AC Power Elite Haiger e.V.,1957-09-05,57.6,63,75,-77.5,77.5,77.5,77.5,F,Masters 2,Single-ply,B
Beate Normann-Escher,2,Polizeisportverein Sonneberg e.V.,1960-03-17,58.5,63,47.5,50,52.5,52.5,52.5,F,Masters 2,Single-ply,B
Lisa Anders,2,Polizeisportverein Sonneberg e.V.,1971-11-21,60.7,63,50,55,60,60,60,F,Masters 1,Single-ply,B
Tanja Artar,1,KSC Puch e.V.,1973-07-23,61.45,63,60,70,77.5,77.5,77.5,F,Masters 1,Single-ply,B
Anita Thimm,1,KSV 1959 Langen e.V.,1950-01-11,62.5,63,62.5,67.5,-70,67.5,67.5,F,Masters 3,Single-ply,B
Sabrina Spangler-Säckl,2,SC Oberölsbach,1990-10-18,62.55,63,30,35,-37.5,35,35,F,Open,Single-ply,B
Juliane Normann,1,Polizeisportverein Sonneberg e.V.,1985-02-17,62.9,63,40,45,-47.5,45,45,F,Open,Single-ply,B
Ilona Greiner,1,Polizeisportverein Sonneberg e.V.,1946-09-23,62.9,63,57.5,60,62.5,62.5,62.5,F,Masters 4,Single-ply,B
Constanze Bauersachs,2,Polizeisportverein Sonneberg e.V.,1984-03-12,64.9,72,30,32.5,35,35,35,F,Open,Single-ply,B
Andrea Walther,5,Polizeisportverein Sonneberg e.V.,1960-09-30,64.95,72,40,42.5,45,45,45,F,Masters 2,Single-ply,B
Elke Lerach,3,KSC Frauenau,1966-05-31,65.2,72,60,62.5,-65,62.5,62.5,F,Masters 2,Single-ply,B
Sabine Baunacke,6,Kraftsportfreunde Stoeckigt,1963-09-12,66.6,72,30,35,-37.5,35,35,F,Masters 2,Single-ply,B
Ines Schneider,4,Polizeisportverein Sonneberg e.V.,1966-04-26,69.55,72,45,50,-52.5,50,50,F,Masters 2,Single-ply,B
Iris Kunkel,1,AC Siegen e.V.,1964-07-20,71.3,72,117.5,,,117.5,117.5,F,Masters 2,Single-ply,B
Rosina Polster,1,SC Oberölsbach,1984-11-17,71.35,72,105,-110,-115,105,105,F,Open,Single-ply,B
Ursula Häuser,2,Fitness-Club Rhein-Main Rüsselsh,1960-05-11,71.35,72,95,100,,100,100,F,Masters 2,Single-ply,B
Annette Reif,1,SC Oberölsbach,1974-05-08,71.8,72,70,75,80,80,80,F,Masters 1,Single-ply,B
Annett Gebhardt,1,Polizeisportverein Sonneberg e.V.,1965-04-28,73.8,84,30,35,37.5,37.5,37.5,F,Masters 2,Single-ply,B
Carmen Hochholzer,1,KSC II Amberg,1993-03-29,77.45,84,65,70,75,75,75,F,Juniors,Single-ply,B
Frieda Holzer,1,KSC II Amberg,1968-11-20,79,84,-115,115,-122.5,115,115,F,Masters 1,Single-ply,B
Dominik Wegener,1,KKSV Sonneberg e.V.,2000-03-11,47.2,53,60,65,67.5,67.5,67.5,M,Youth B,Single-ply,B
Max Schmid,2,FC Ebenhofen,1993-10-20,56.65,59,107.5,-112.5,112.5,112.5,112.5,M,Juniors,Single-ply,B
Dominik Bogensperger,1,KSC II Amberg,1997-02-10,58.95,59,105,112.5,115,115,115,M,Juniors,Single-ply,B
Viktor Schwuger,2,SC Oberölsbach,2000-01-26,60.6,66,60,65,-72.5,65,65,M,Youth B,Single-ply,B
Frederik Schmitz,3,KSC Puch e.V.,1999-06-10,61.5,66,70,75,80,80,80,M,Youth A,Single-ply,B
Martin Schwer,2,FC Ebenhofen,1998-08-24,61.95,66,87.5,92.5,95,95,95,M,Youth A,Single-ply,B
Michael Wimmer,3,TG Landshut / Sparte KDK,1961-11-29,63.2,66,90,95,100,100,100,M,Masters 2,Single-ply,B
Sebastian Wegener,1,KKSV Sonneberg e.V.,2001-03-29,63.5,66,60,65,70,70,70,M,Youth B,Single-ply,B
Christian Rupp,1,SV Fellbach,1999-07-30,64.4,66,100,105,107.5,107.5,107.5,M,Youth A,Single-ply,B
Alexander Diepold,1,KSC Puch e.V.,1937-10-07,64.6,66,97.5,102.5,-105,102.5,102.5,M,Masters 4,Single-ply,B
Frank Wunderlich,2,Sanssouci Gym e.V. Potsdam,1964-02-24,65.1,66,120,-125,-125,120,120,M,Masters 2,Single-ply,B
Christian Bogensperger,1,KSC II Amberg,1994-05-28,65.25,66,90,95,-100,95,95,M,Juniors,Single-ply,B
Roland Rothenberger,1,1. AC Bayreuth v. 1954 e.V.,1947-04-05,65.5,66,85,90,,90,90,M,Masters 3,Single-ply,B
Rudolf Pleithner,1,KSC Puch e.V.,1962-03-31,65.55,66,115,120,127.5,127.5,127.5,M,Masters 2,Single-ply,B
Ali Alkan,2,AC-92 Weinheim,1950-03-15,66,66,75,80,-92.5,80,80,M,Masters 3,Single-ply,B
Lukas Berger,1,KSC Puch e.V.,1998-07-11,69.3,74,70,77.5,82.5,82.5,82.5,M,Youth A,Single-ply,B
Eugen Sokirko,6,SC Oberölsbach,1992-05-01,70.05,74,110,-115,-115,110,110,M,Open,Single-ply,B
Philipp Lutschan,7,SV 1956 e.V.Großkochberg,1990-10-03,70.55,74,95,102.5,-107.5,102.5,102.5,M,Open,Single-ply,B
Alex Osipenko,1,KSV Renchtal e.V.,1993-12-16,72.45,74,-140,-145,145,145,145,M,Juniors,Single-ply,B
Egon Escher,1,Polizeisportverein Sonneberg e.V.,1954-05-21,72.7,74,110,120,130,130,130,M,Masters 3,Single-ply,B
Myrco Griesch,3,Iron Athletik SportclubErfurt e.V.,1980-08-14,72.85,74,140,147.5,155,155,155,M,Open,Single-ply,B
Viktor Suppes,4,SV 1919 Grimma,1987-05-06,72.85,74,150,-157.5,-157.5,150,150,M,Open,Single-ply,B
Marc Polster,1,SC Oberölsbach,1986-05-05,72.95,74,160,170,-180,170,170,M,Open,Single-ply,B
Mike Grizibek,2,KSV Zillbach,1966-11-03,73.35,74,127.5,-132.5,-132.5,127.5,127.5,M,Masters 2,Single-ply,B
Michel Ehrlicher,5,Polizeisportverein Sonneberg e.V.,1985-01-08,73.7,74,120,127.5,132.5,132.5,132.5,M,Open,Single-ply,B
Danny Naber,2,Ac-Amberg e.V.,1986-12-22,73.85,74,150,165,-172.5,165,165,M,Open,Single-ply,B
Jonas Schulze,2,TG Landshut / Sparte KDK,1996-02-15,73.9,74,105,-115,,105,105,M,Juniors,Single-ply,B
Klaus Griesch,1,Iron Athletik SportclubErfurt e.V.,1959-03-05,73.9,74,175,-185,185,185,185,M,Masters 2,Single-ply,B
Johannes Hauf,2,KSC Frauenau,1999-10-31,74.45,83,60,70,-75,70,70,M,Youth A,Single-ply,B
Tilman Märtl,3,Ac-Amberg e.V.,1996-03-03,76.35,83,80,85,-90,85,85,M,Juniors,Single-ply,B
Matthias Wunderlich,1,AC Bavaria Forchheim e. V.,1998-06-28,76.65,83,100,112.5,120,120,120,M,Youth A,Single-ply,B
Stefan Pagelsen,6,TG Landshut / Sparte KDK,1992-07-18,77.2,83,140,150,-155,150,150,M,Open,Single-ply,B
Harald Dollhopf,2,1. AC Bayreuth v. 1954 e.V.,1955-04-28,78.15,83,85,87.5,90,90,90,M,Masters 3,Single-ply,B
Bernhard Schmid,3,KSC II Amberg,1963-08-23,78.25,83,92.5,97.5,-102.5,97.5,97.5,M,Masters 2,Single-ply,B
Matthias Krenzer,5,AC Power Elite Haiger e.V.,1957-04-24,78.35,83,80,85,87.5,87.5,87.5,M,Masters 2,Single-ply,B
Matthias Kürzinger,9,SC Oberölsbach,1991-04-30,78.7,83,135,142.5,-150,142.5,142.5,M,Open,Single-ply,B
Tim Uthmann,10,AC Bavaria Forchheim e. V.,1990-07-09,79.65,83,130,135,-140,135,135,M,Open,Single-ply,B
Andre Hirschmann,4,FC Erzgebirge Aue Abt. Kraftsport,1988-02-25,80.3,83,160,-170,-170,160,160,M,Open,Single-ply,B
André Ignor,7,STC Bavaria 20 Landshut e.V.,1988-05-14,80.65,83,140,145,-150,145,145,M,Open,Single-ply,B
Tom Schilling,3,FC Erzgebirge Aue Abt. Kraftsport,1987-08-10,80.8,83,155,-160,162.5,162.5,162.5,M,Open,Single-ply,B
Felix Köll,2,TG Landshut / Sparte KDK,1996-07-16,81.05,83,110,115,-120,115,115,M,Juniors,Single-ply,B
Reiner Krieger,4,KSC II Amberg,1960-06-21,81.05,83,95,-100,-100,95,95,M,Masters 2,Single-ply,B
Markus Pirke,1,KSC II Amberg,1997-05-26,81.5,83,120,125,-130,125,125,M,Juniors,Single-ply,B
Dirk Wetzel,2,SG Motor Arnstadt,1980-10-12,81.8,83,170,177.5,-182.5,177.5,177.5,M,Open,Single-ply,B
Andreas Staude,8,STC Bavaria 20 Landshut e.V.,1979-04-07,82.45,83,145,-155,-162.5,145,145,M,Open,Single-ply,B
Alexej Lysenko,1,SV 1919 Grimma,1984-11-28,82.6,83,180,187.5,-195,187.5,187.5,M,Open,Single-ply,B
Simon Fillenberg,5,KSC II Amberg,1983-07-06,82.65,83,145,152.5,-160,152.5,152.5,M,Open,Single-ply,B
Arthur Hirner,2,KSC II Amberg,1957-12-04,82.7,83,140,145,-150,145,145,M,Masters 2,Single-ply,B
Juri Makuschkin,1,TG Landshut / Sparte KDK,1963-02-22,82.95,83,140,150,155,155,155,M,Masters 2,Single-ply,B
Gerhard Baumeister,1,AC-92 Weinheim,1952-01-28,82.95,83,130,137.5,142.5,142.5,142.5,M,Masters 3,Single-ply,B
Rainer Schötz,1,SC Oberölsbach,1943-03-30,83,83,130,135,140,140,140,M,Masters 4,Single-ply,B
Robeis Robert,5,Ac-Amberg e.V.,1958-05-13,83.6,93,117.5,-127.5,-127.5,117.5,117.5,M,Masters 2,Single-ply,B
Max Heynck,4,KSC Puch e.V.,1965-09-09,83.75,93,120,-125,-125,120,120,M,Masters 2,Single-ply,B
Mark Boronkai,1,SC Oberölsbach,1958-01-28,83.8,93,120,127.5,137.5,137.5,137.5,M,Masters 2,Single-ply,B
Uwe Reinhardt,2,Kraftsportfreunde Stoeckigt,1960-08-03,83.8,93,135,-142.5,-145,135,135,M,Masters 2,Single-ply,B
Simon Hornauer,4,SC-Wald e.V.,1996-03-04,83.9,93,-125,-127.5,127.5,127.5,127.5,M,Juniors,Single-ply,B
Johannes Meier,5,SC Oberölsbach,1995-11-07,83.9,93,110,120,-130,120,120,M,Juniors,Single-ply,B
Max Stark,1,SC Oberölsbach,2000-04-29,85.2,93,100,110,115,115,115,M,Youth B,Single-ply,B
Albert Geitner,2,SC Oberölsbach,1956-02-07,86.45,93,110,115,120,120,120,M,Masters 3,Single-ply,B
Andreas Schmidt,3,Kraftsportfreunde Stoeckigt,1989-02-22,87.15,93,130,-137.5,140,140,140,M,Open,Single-ply,B
Siegfried Thormeyer,2,Polizeisportverein Sonneberg e.V.,1939-11-13,88,93,-70,70,77.5,77.5,77.5,M,Masters 4,Single-ply,B
Eugen Schwabauer,1,SSV Höchstädt,1974-05-17,88.05,93,180,190,200,200,200,M,Masters 1,Single-ply,B
Paul Aigner,2,Ac-Amberg e.V.,1994-05-17,88.3,93,140,150,160,160,160,M,Juniors,Single-ply,B
Harald Will,1,AC-92 Weinheim,1940-02-20,89.3,93,140,145,150,150,150,M,Masters 4,Single-ply,B
Johannes Spangler,4,SC Oberölsbach,1986-09-18,89.75,93,105,110,-115,110,110,M,Open,Single-ply,B
Hans-Jürgen Ehrt,1,KSC II Amberg,1956-12-04,89.8,93,210,215,-220,215,215,M,Masters 3,Single-ply,B
Enrico Höll,2,FC Erzgebirge Aue Abt. Kraftsport,1991-07-12,90,93,150,-157.5,-165,150,150,M,Open,Single-ply,B
Stefan Schneider,4,Polizeisportverein Sonneberg e.V.,1967-07-19,90.75,93,120,-140,-140,120,120,M,Masters 1,Single-ply,B
Christian Flueras,1,Sanssouci Gym e.V. Potsdam,1996-03-16,90.95,93,187.5,195,200,200,200,M,Juniors,Single-ply,B
Guido Nieland,2,AC-92 Weinheim,1970-09-25,90.95,93,-180,180,-192.5,180,180,M,Masters 1,Single-ply,B
Josef Stich,3,SC Oberölsbach,1995-04-22,91.3,93,130,137.5,145,145,145,M,Juniors,Single-ply,B
Yannick Reinlein,1,AC Bavaria Forchheim e. V.,1998-02-09,91.7,93,137.5,147.5,152.5,152.5,152.5,M,Youth A,Single-ply,B
Ronny Berndt,1,KSV Renchtal e.V.,1979-03-23,91.85,93,237.5,,,237.5,237.5,M,Open,Single-ply,B
Andreas Schulz,3,KSC II Amberg,1967-05-06,92.75,93,140,-165,-165,140,140,M,Masters 1,Single-ply,B
Alexander Bondarenko,3,SSV Höchstädt,1958-12-06,92.9,93,125,-135,-135,125,125,M,Masters 2,Single-ply,B
Steffen Vitzthum,1,Iron Athletik SportclubErfurt e.V.,1968-06-04,94.25,105,125,132.5,-137.5,132.5,132.5,M,Masters 1,Single-ply,B
Alexander Voigt,1,Athletik Club Olympia Schrobenhau,1999-04-27,94.6,105,110,120,-125,120,120,M,Youth A,Single-ply,B
Daniel Meyer,6,Athletik Club Olympia Schrobenhau,1984-02-29,94.95,105,115,120,130,130,130,M,Open,Single-ply,B
Falk Hempel,3,Kraft & Figur e.V. Hoyerswerda,1952-03-23,95.6,105,100,-110,110,110,110,M,Masters 3,Single-ply,B
Matthias Töpfl,4,TG Landshut / Sparte KDK,1992-02-01,96.85,105,150,160,165,165,165,M,Open,Single-ply,B
Stefan Med,5,FC Ebenhofen,1978-04-20,96.95,105,150,-160,-160,150,150,M,Open,Single-ply,B
Daniel Rackl,1,SC Oberölsbach,1994-11-10,97.85,105,90,100,105,105,105,M,Juniors,Single-ply,B
Andreas Rehm,3,ASV 1897 Neu-Ulm,1978-03-28,100.8,105,165,175,-185,175,175,M,Open,Single-ply,B
Roland Thürmer,1,STC Bavaria 20 Landshut e.V.,1949-09-02,100.95,105,130,135,140,140,140,M,Masters 3,Single-ply,B
Wolfgang Straßer,2,STC Bavaria 20 Landshut e.V.,1989-05-28,101.05,105,195,-200,-200,195,195,M,Open,Single-ply,B
Frank Barthel,1,SV 1956 e.V.Großkochberg,1980-02-20,102.1,105,-242.5,242.5,-255,242.5,242.5,M,Open,Single-ply,B
Harald Nutsch,1,SC Oberölsbach,1959-02-24,102.95,105,160,165,-170,165,165,M,Masters 2,Single-ply,B
Olivér Fias,DQ,ASV 1897 Neu-Ulm,1980-03-19,103.1,105,-200,-205,-205,,,M,Open,Single-ply,B
Johann Haas,2,ASV 1897 Neu-Ulm,1954-09-17,103.8,105,112.5,-117.5,-117.5,112.5,112.5,M,Masters 3,Single-ply,B
Karl-Heinz Moos,4,AC Power Elite Haiger e.V.,1959-11-19,103.85,105,115,-140,140,140,140,M,Masters 2,Single-ply,B
Klaus Kubesch,3,FC Ebenhofen,1960-04-03,104.35,105,150,-160,-160,150,150,M,Masters 2,Single-ply,B
Stephan Lerach,2,KSC Frauenau,1962-12-23,104.75,105,155,165,-170,165,165,M,Masters 2,Single-ply,B
Lukasz Rydzynski,DQ,STC Bavaria 20 Landshut e.V.,1983-11-27,105.4,120,-215,-215,-217.5,,,M,Open,Single-ply,B
Hubert Krämer,4,FC Ebenhofen,1959-09-12,106.65,120,120,127.5,-132.5,127.5,127.5,M,Masters 2,Single-ply,B
Nikolai Geist,1,SSV Höchstädt,1981-10-02,107.15,120,215,225,235,235,235,M,Open,Single-ply,B
Andreas Töpfl,2,TG Landshut / Sparte KDK,1993-12-11,109.35,120,110,120,125,125,125,M,Juniors,Single-ply,B
Walter Einwang,3,STC Bavaria 20 Landshut e.V.,1960-05-14,110.05,120,135,140,-142.5,140,140,M,Masters 2,Single-ply,B
Lawrence Anderson,1,1. AC Bayreuth v. 1954 e.V.,1956-09-30,113.45,120,120,130,-140,130,130,M,Masters 3,Single-ply,B
Wolfgang Zimmermann,1,KSC II Amberg,1968-02-10,113.9,120,-240,-245,245,245,245,M,Masters 1,Single-ply,B
Christoph Seefeld,3,SC Oberölsbach,1980-11-29,115.6,120,200,-217.5,-217.5,200,200,M,Open,Single-ply,B
Peter Fischer,2,1. AC Bayreuth v. 1954 e.V.,1960-04-13,115.85,120,140,147.5,-155,147.5,147.5,M,Masters 2,Single-ply,B
Günther Salbeck,2,SC-Wald e.V.,1978-03-04,116.2,120,-195,202.5,212.5,212.5,212.5,M,Open,Single-ply,B
Vico Ruck,DQ,KSV Zillbach,1974-12-26,118.25,120,-265,-270,-270,,,M,Masters 1,Single-ply,B
Stefan Bauer,1,AC Bavaria Forchheim e. V.,1997-05-07,118.9,120,190,-200,-210,190,190,M,Juniors,Single-ply,B
Lutz Lenk,1,Polizeisportverein Sonneberg e.V.,1958-04-06,119.35,120,160,170,180,180,180,M,Masters 2,Single-ply,B
Ronny Reimling,2,Kraftsportfreunde Stoeckigt,1976-04-21,120,120,200,-270,-272.5,200,200,M,Masters 1,Single-ply,B
Heinz Schmidt,1,SC Oberölsbach,1967-10-01,123.25,120+,180,-187.5,195,195,195,M,Masters 1,Single-ply,B
Matthias Wagner,3,KSV Zillbach,1965-05-22,124.15,120+,175,-182.5,-182.5,175,175,M,Masters 2,Single-ply,B
Karl-Heinz May,1,Polizeisportverein Sonneberg e.V.,1953-05-17,129.2,120+,180,190,,190,190,M,Masters 3,Single-ply,B
Udo Thielking,1,AC Power Elite Haiger e.V.,1961-05-30,134.35,120+,235,-245,,235,235,M,Masters 2,Single-ply,B
Tobias Zinserling,1,Gothaer Bierfassheberverein e.V.,1978-02-08,147.95,120+,210,217.5,225,225,225,M,Open,Single-ply,B
Jürgen Lochner,2,FC Ebenhofen,1959-06-03,148.45,120+,185,195,200,200,200,M,Masters 2,Single-ply,B
Markus Gradel,2,SC Oberölsbach,1992-05-07,154,120+,160,170,177.5,177.5,177.5,M,Open,Single-ply,B
